\babel@toc {english}{}
\babel@toc {english}{}
\contentsline {section}{\numberline {1}Katk\IeC {\i } ve Geli\IeC {\c s}im}{7}{section.1}% 
\contentsline {section}{\numberline {2}Arch Linux}{9}{section.2}% 
\contentsline {subsection}{\numberline {2.1}Arch Linux Nedir}{9}{subsection.2.1}% 
\contentsline {subsection}{\numberline {2.2}Avantajlar\IeC {\i }}{9}{subsection.2.2}% 
\contentsline {subsection}{\numberline {2.3}Benzersiz Paket Y\IeC {\"o}netimi}{9}{subsection.2.3}% 
\contentsline {subsection}{\numberline {2.4}Sadece en iyisi}{10}{subsection.2.4}% 
\contentsline {subsection}{\numberline {2.5}Basitlik}{10}{subsection.2.5}% 
\contentsline {subsection}{\numberline {2.6}Modernlik}{10}{subsection.2.6}% 
\contentsline {section}{\numberline {3}Arch Tarz\IeC {\i }}{11}{section.3}% 
\contentsline {subsection}{\numberline {3.1}Basitlik ve Sadelik}{11}{subsection.3.1}% 
\contentsline {subsection}{\numberline {3.2}Kolay Kod D\IeC {\"u}zenleme}{11}{subsection.3.2}% 
\contentsline {subsection}{\numberline {3.3}A\IeC {\c c}\IeC {\i }kl\IeC {\i }k}{12}{subsection.3.3}% 
\contentsline {subsection}{\numberline {3.4}Kullan\IeC {\i }c\IeC {\i } Merkezli}{12}{subsection.3.4}% 
\contentsline {subsection}{\numberline {3.5}\IeC {\"O}zg\IeC {\"u}r}{12}{subsection.3.5}% 
\contentsline {section}{\numberline {4}Pacman Paket Y\IeC {\"o}neticisi}{13}{section.4}% 
\contentsline {subsection}{\numberline {4.1}Pacman Nedir}{13}{subsection.4.1}% 
\contentsline {subsection}{\numberline {4.2}Pacman Kullan\IeC {\i }m\IeC {\i }}{13}{subsection.4.2}% 
\contentsline {subsubsection}{\numberline {4.2.1}Paket Y\IeC {\"u}kleme}{13}{subsubsection.4.2.1}% 
\contentsline {subsubsection}{\numberline {4.2.2}Belirli Bir Paketi Y\IeC {\"u}kleme}{14}{subsubsection.4.2.2}% 
\contentsline {subsubsection}{\numberline {4.2.3}Paket Gruplar\IeC {\i }n\IeC {\i } Y\IeC {\"u}kleme}{15}{subsubsection.4.2.3}% 
\contentsline {subsubsection}{\numberline {4.2.4}Paketleri Kald\IeC {\i }rma}{15}{subsubsection.4.2.4}% 
\contentsline {subsubsection}{\numberline {4.2.5}Paketleri Y\IeC {\"u}kseltme}{16}{subsubsection.4.2.5}% 
\contentsline {subsubsection}{\numberline {4.2.6}Paket Veritabanlar\IeC {\i }n\IeC {\i } Sorgulama}{16}{subsubsection.4.2.6}% 
\contentsline {subsubsection}{\numberline {4.2.7}Pactree}{17}{subsubsection.4.2.7}% 
\contentsline {subsubsection}{\numberline {4.2.8}Veritaban\IeC {\i } Yap\IeC {\i }s\IeC {\i }}{17}{subsubsection.4.2.8}% 
\contentsline {subsubsection}{\numberline {4.2.9}Paket \IeC {\"O}nbelle\IeC {\u g}ini Temizleme}{18}{subsubsection.4.2.9}% 
\contentsline {subsubsection}{\numberline {4.2.10}Ek Komutlar}{19}{subsubsection.4.2.10}% 
\contentsline {subsubsection}{\numberline {4.2.11}Kurulum Nedeni}{19}{subsubsection.4.2.11}% 
\contentsline {subsubsection}{\numberline {4.2.12}Belirli Bir Dosyay\IeC {\i } \IeC {\.I}\IeC {\c c}eren Bir Paketi Arama}{19}{subsubsection.4.2.12}% 
\contentsline {subsection}{\numberline {4.3}Pacman Yap\IeC {\i }land\IeC {\i }rmas\IeC {\i }}{20}{subsection.4.3}% 
\contentsline {subsubsection}{\numberline {4.3.1}Genel Se\IeC {\c c}enekler}{20}{subsubsection.4.3.1}% 
\contentsline {subsubsection}{\numberline {4.3.2}G\IeC {\"u}ncellemeden \IeC {\"O}nce S\IeC {\"u}r\IeC {\"u}mleri Kar\IeC {\c s}\IeC {\i }la\IeC {\c s}t\IeC {\i }rma}{20}{subsubsection.4.3.2}% 
\contentsline {subsubsection}{\numberline {4.3.3}Paketi Y\IeC {\"u}kseltmeden Atlama}{20}{subsubsection.4.3.3}% 
\contentsline {subsubsection}{\numberline {4.3.4}Paket Grubunun Y\IeC {\"u}kseltilmesini Engelleme}{21}{subsubsection.4.3.4}% 
\contentsline {subsubsection}{\numberline {4.3.5}Dosya Y\IeC {\"u}kseltmeyi Atlama}{21}{subsubsection.4.3.5}% 
\contentsline {subsubsection}{\numberline {4.3.6}Dosyalar\IeC {\i } Sisteme Y\IeC {\"u}klemeyi Atlama}{21}{subsubsection.4.3.6}% 
\contentsline {subsubsection}{\numberline {4.3.7}Birka\IeC {\c c} Yap\IeC {\i }land\IeC {\i }rma Dosyas\IeC {\i }n\IeC {\i } Koruma}{21}{subsubsection.4.3.7}% 
\contentsline {subsubsection}{\numberline {4.3.8}Hooks - Kancalar}{21}{subsubsection.4.3.8}% 
\contentsline {subsubsection}{\numberline {4.3.9}Depolar ve Yans\IeC {\i }lar}{22}{subsubsection.4.3.9}% 
\contentsline {subsubsection}{\numberline {4.3.10}Paket G\IeC {\"u}venli\IeC {\u g}i}{22}{subsubsection.4.3.10}% 
\contentsline {subsection}{\numberline {4.4}Sorun Giderme}{22}{subsection.4.4}% 
\contentsline {subsubsection}{\numberline {4.4.1}"\IeC {\.I}\IeC {\c s}lem ger\IeC {\c c}ekle\IeC {\c s}tirilemedi (\IeC {\c c}ak\IeC {\i }\IeC {\c s}an dosyalar)" Hatas\IeC {\i }}{22}{subsubsection.4.4.1}% 
\contentsline {subsubsection}{\numberline {4.4.2}"\IeC {\.I}\IeC {\c s}lem ger\IeC {\c c}ekle\IeC {\c s}tirilemedi (ge\IeC {\c c}ersiz veya bozuk paket)" Hatas\IeC {\i }}{23}{subsubsection.4.4.2}% 
\contentsline {subsubsection}{\numberline {4.4.3}"\IeC {\.I}\IeC {\c s}lem ba\IeC {\c s}lat\IeC {\i }lamad\IeC {\i } (veritaban\IeC {\i } kilitlenemiyor)" Hatas\IeC {\i }}{23}{subsubsection.4.4.3}% 
\contentsline {subsubsection}{\numberline {4.4.4}Paketler Kurulum S\IeC {\i }ras\IeC {\i }nda Al\IeC {\i }nam\IeC {\i }yor}{23}{subsubsection.4.4.4}% 
\contentsline {subsubsection}{\numberline {4.4.5}Pacman'i Manuel Olarak Yeniden Y\IeC {\"u}kleme}{24}{subsubsection.4.4.5}% 
\contentsline {subsubsection}{\numberline {4.4.6}Pacman Y\IeC {\"u}kseltme S\IeC {\i }ras\IeC {\i }nda \IeC {\c C}\IeC {\"o}k\IeC {\"u}yor}{24}{subsubsection.4.4.6}% 
\contentsline {subsubsection}{\numberline {4.4.7}Yeniden Ba\IeC {\c s}latman\IeC {\i }n Ard\IeC {\i }ndan "K\IeC {\"o}k s\IeC {\"u}r\IeC {\"u}c\IeC {\"u}-ayg\IeC {\i }t bulunamad\IeC {\i }" Hatas\IeC {\i }}{25}{subsubsection.4.4.7}% 
\contentsline {subsubsection}{\numberline {4.4.8}"User <email@example.org>" \IeC {\.I}mzas\IeC {\i } G\IeC {\"u}venilir De\IeC {\u g}il, Y\IeC {\"u}kleme Ba\IeC {\c s}ar\IeC {\i }s\IeC {\i }z Oldu}{26}{subsubsection.4.4.8}% 
\contentsline {subsubsection}{\numberline {4.4.9}PGP Anahtarlar\IeC {\i }n\IeC {\i } \IeC {\.I}\IeC {\c c}e Aktarma \IeC {\.I}ste\IeC {\u g}i}{26}{subsubsection.4.4.9}% 
\contentsline {subsubsection}{\numberline {4.4.10}Hata: "0123456789ABCDEF" Anahtar\IeC {\i } Uzaktan Al\IeC {\i }namad\IeC {\i }}{26}{subsubsection.4.4.10}% 
\contentsline {subsubsection}{\numberline {4.4.11}"User <email@archlinux.org>" \IeC {\.I}mzas\IeC {\i } Ge\IeC {\c c}ersiz, Y\IeC {\"u}kleme Ba\IeC {\c s}ar\IeC {\i }s\IeC {\i }z Oldu}{26}{subsubsection.4.4.11}% 
\contentsline {subsubsection}{\numberline {4.4.12}"Uyar\IeC {\i }: ge\IeC {\c c}erli yerel ayar ge\IeC {\c c}ersiz; varsay\IeC {\i }lan" C "yerel ayar\IeC {\i }n\IeC {\i } kullanma hatas\IeC {\i }"}{27}{subsubsection.4.4.12}% 
\contentsline {subsubsection}{\numberline {4.4.13}Pacman Proxy Ayarlar\IeC {\i }na Uymuyor}{27}{subsubsection.4.4.13}% 
\contentsline {subsubsection}{\numberline {4.4.14}Bir\IeC {\c s}eyin A\IeC {\c c}\IeC {\i }k\IeC {\c c}a Kurulup Kurulmad\IeC {\i }\IeC {\u g}\IeC {\i }na yada Ba\IeC {\u g}\IeC {\i }ml\IeC {\i }l\IeC {\i }k Durumuna \IeC {\.I}li\IeC {\c s}kin Bilgileri Koruyarak T\IeC {\"u}m Paketleri Nas\IeC {\i }l Yeniden Kurabilirim?}{27}{subsubsection.4.4.14}% 
\contentsline {subsubsection}{\numberline {4.4.15}"Payla\IeC {\c s}\IeC {\i }lan nesne dosyas\IeC {\i } a\IeC {\c c}\IeC {\i }lam\IeC {\i }yor" Hatas\IeC {\i }}{27}{subsubsection.4.4.15}% 
\contentsline {subsubsection}{\numberline {4.4.16}Paket indirme \IeC {\.I}\IeC {\c s}lemlerinin Dondurulmas\IeC {\i }}{27}{subsubsection.4.4.16}% 
\contentsline {subsubsection}{\numberline {4.4.17}'core.db' Dosyas\IeC {\i } Yans\IeC {\i }dan Al\IeC {\i }namad\IeC {\i }}{28}{subsubsection.4.4.17}% 
\contentsline {subsection}{\numberline {4.5}Pacman \IeC {\c C}al\IeC {\i }\IeC {\c s}ma Anlay\IeC {\i }\IeC {\c s}\IeC {\i }}{28}{subsection.4.5}% 
\contentsline {subsubsection}{\numberline {4.5.1}Paket Y\IeC {\"u}kleme / Y\IeC {\"u}kseltme / Kald\IeC {\i }rma S\IeC {\i }ras\IeC {\i }nda Ne Olur?}{28}{subsubsection.4.5.1}% 
\contentsline {subsection}{\numberline {4.6}Ayr\IeC {\i }ca Bak\IeC {\i }n\IeC {\i }z}{28}{subsection.4.6}% 
\contentsline {subsection}{\numberline {4.7}Bu \IeC {\c c}al\IeC {\i }\IeC {\c s}man\IeC {\i }n orijinal kayna\IeC {\u g}\IeC {\i }:}{28}{subsection.4.7}% 
\contentsline {section}{\numberline {5}Kurulum Rehberi}{29}{section.5}% 
\contentsline {subsection}{\numberline {5.1}Kurulum \IeC {\"O}zellikleri}{29}{subsection.5.1}% 
\contentsline {subsection}{\numberline {5.2}Resmi Kurulum D\IeC {\"o}k\IeC {\"u}mantasyonu}{29}{subsection.5.2}% 
\contentsline {subsection}{\numberline {5.3}Kurulum Medyas\IeC {\i }n\IeC {\i }n Haz\IeC {\i }rlanmas\IeC {\i }}{29}{subsection.5.3}% 
\contentsline {subsubsection}{\numberline {5.3.1}R\IeC {\"u}fus kullanarak Kurulum Medyas\IeC {\i }n\IeC {\i }n Haz\IeC {\i }rlanmas\IeC {\i }}{29}{subsubsection.5.3.1}% 
\contentsline {subsubsection}{\numberline {5.3.2}DD kullan\IeC {\i }m\IeC {\i } ile Kurulum Medyas\IeC {\i }n\IeC {\i }n Haz\IeC {\i }rlanmas\IeC {\i }}{30}{subsubsection.5.3.2}% 
\contentsline {subsection}{\numberline {5.4}Klavyenin T\IeC {\"u}rk\IeC {\c c}ele\IeC {\c s}tirilmesi}{30}{subsection.5.4}% 
\contentsline {subsection}{\numberline {5.5}\IeC {\.I}nternete Ba\IeC {\u g}lanma}{30}{subsection.5.5}% 
\contentsline {subsection}{\numberline {5.6}\IeC {\.I}nternet Ba\IeC {\u g}lant\IeC {\i } Kontrol\IeC {\"u}}{30}{subsection.5.6}% 
\contentsline {subsection}{\numberline {5.7}UEFI,GPT,MBR \IeC {\"O}rnek D\IeC {\"u}zenleri}{31}{subsection.5.7}% 
\contentsline {subsubsection}{\numberline {5.7.1}UEFI/GPT \IeC {\"O}rnek D\IeC {\"u}zeni}{31}{subsubsection.5.7.1}% 
\contentsline {subsubsection}{\numberline {5.7.2}BIOS/MBR \IeC {\"O}rnek D\IeC {\"u}zeni}{31}{subsubsection.5.7.2}% 
\contentsline {subsubsection}{\numberline {5.7.3}BIOS/GPT \IeC {\"O}rnek D\IeC {\"u}zeni}{32}{subsubsection.5.7.3}% 
\contentsline {subsection}{\numberline {5.8}B\IeC {\"o}l\IeC {\"u}mleme Ara\IeC {\c c}lar\IeC {\i }n\IeC {\i }n Belirlenmesi}{32}{subsection.5.8}% 
\contentsline {subsection}{\numberline {5.9}Disklerin Bi\IeC {\c c}imlendirilmesi}{34}{subsection.5.9}% 
\contentsline {subsection}{\numberline {5.10}Disklerin Ba\IeC {\u g}lanmas\IeC {\i }}{34}{subsection.5.10}% 
\contentsline {subsection}{\numberline {5.11}Temel paket kurulumlar\IeC {\i }}{35}{subsection.5.11}% 
\contentsline {subsection}{\numberline {5.12}Genfstab ve Fstab}{35}{subsection.5.12}% 
\contentsline {subsection}{\numberline {5.13}K\IeC {\"o}k dizin De\IeC {\u g}i\IeC {\c s}tirme \IeC {\.I}\IeC {\c s}lemi}{36}{subsection.5.13}% 
\contentsline {subsection}{\numberline {5.14}Ana Bilgisayar Ad\IeC {\i }n\IeC {\i } Belirleme}{36}{subsection.5.14}% 
\contentsline {subsection}{\numberline {5.15}Yerel Ayarlar}{37}{subsection.5.15}% 
\contentsline {subsection}{\numberline {5.16}Sistem Yerel Ayarlar\IeC {\i }}{37}{subsection.5.16}% 
\contentsline {subsection}{\numberline {5.17}B\IeC {\"o}lge Ayarlar\IeC {\i }}{38}{subsection.5.17}% 
\contentsline {subsection}{\numberline {5.18}Paket Y\IeC {\"o}neticisinin Yap\IeC {\i }land\IeC {\i }r\IeC {\i }lmas\IeC {\i }}{38}{subsection.5.18}% 
\contentsline {subsection}{\numberline {5.19}Kullan\IeC {\i }c\IeC {\i } ve \IeC {\c S}ifre \IeC {\.I}\IeC {\c s}lemleri}{39}{subsection.5.19}% 
\contentsline {subsection}{\numberline {5.20}\IeC {\c C}ekirde\IeC {\u g}in Derlenmesi}{39}{subsection.5.20}% 
\contentsline {subsection}{\numberline {5.21}Kullan\IeC {\i }c\IeC {\i } \IeC {\.I}zinlerinin Ayarlanmas\IeC {\i }}{40}{subsection.5.21}% 
\contentsline {subsection}{\numberline {5.22}\IeC {\.I}nternet ba\IeC {\u g}lant\IeC {\i }s\IeC {\i } i\IeC {\c c}in Paket \IeC {\.I}htiya\IeC {\c c}lar\IeC {\i }}{40}{subsection.5.22}% 
\contentsline {subsection}{\numberline {5.23}GRUB Kurulumu Ve EFI \IeC {\.I}\IeC {\c c}in Paket \IeC {\.I}htiya\IeC {\c c}lar\IeC {\i }}{42}{subsection.5.23}% 
\contentsline {subsection}{\numberline {5.24}Arch Linux Kullanabilece\IeC {\u g}iniz Ortamlar}{43}{subsection.5.24}% 
\contentsline {subsection}{\numberline {5.25}Arch Linux Masa\IeC {\"u}st\IeC {\"u} Ortamlar\IeC {\i }n\IeC {\i }n Kurulumu}{44}{subsection.5.25}% 
\contentsline {subsection}{\numberline {5.26}Arch Linux Pencere Y\IeC {\"o}neticilerinin Kurulumu}{44}{subsection.5.26}% 
\contentsline {subsection}{\numberline {5.27}Xorg Kurulumlar\IeC {\i }}{45}{subsection.5.27}% 
\contentsline {subsection}{\numberline {5.28}Alsa Ses S\IeC {\"u}r\IeC {\"u}c\IeC {\"u}s\IeC {\"u}n\IeC {\"u}n Kurulumu}{45}{subsection.5.28}% 
\contentsline {subsection}{\numberline {5.29}G\IeC {\"o}r\IeC {\"u}nt\IeC {\"u}leme Y\IeC {\"o}neticisinin Kurulumu}{45}{subsection.5.29}% 
\contentsline {section}{\numberline {6}Varolan Linux Da\IeC {\u g}\IeC {\i }t\IeC {\i }m\IeC {\i } \IeC {\"U}zerinden Arch Linux Kurulumu}{46}{section.6}% 
\contentsline {subsection}{\numberline {6.1}Giri\IeC {\c s}}{46}{subsection.6.1}% 
\contentsline {subsection}{\numberline {6.2}Y\IeC {\"u}klemeye Haz\IeC {\i }rl\IeC {\i }k ve bootstrap s\IeC {\"u}r\IeC {\"u}m\IeC {\"u}n indirilmesi}{47}{subsection.6.2}% 
\contentsline {subsection}{\numberline {6.3}Arch L\IeC {\i }nux Ara\IeC {\c c}lar\IeC {\i }n\IeC {\i }n Varolan Da\IeC {\u g}\IeC {\i }t\IeC {\i }ma Y\IeC {\"u}klenmesi}{48}{subsection.6.3}% 
\contentsline {subsection}{\numberline {6.4}Dosyalar\IeC {\i } Kopyalama VE Chroot \IeC {\.I}le Giri\IeC {\c s} Yapma}{48}{subsection.6.4}% 
\contentsline {subsection}{\numberline {6.5}Pacman Anahtarl\IeC {\i }\IeC {\u g}\IeC {\i }na(Keyring) \IeC {\.I}lk De\IeC {\u g}er Verme}{50}{subsection.6.5}% 
\contentsline {subsection}{\numberline {6.6}Son Yap\IeC {\i }lacaklar}{51}{subsection.6.6}% 
\contentsline {section}{\numberline {7}Masa\IeC {\"u}st\IeC {\"u} Ortam\IeC {\i } Yap\IeC {\i }land\IeC {\i }rmalar\IeC {\i }}{53}{section.7}% 
\contentsline {subsection}{\numberline {7.1}XFCE Yap\IeC {\i }land\IeC {\i }rmas\IeC {\i }}{53}{subsection.7.1}% 
\contentsline {section}{\numberline {8}Pencere Y\IeC {\"o}neticisi Yap\IeC {\i }land\IeC {\i }rmalar\IeC {\i } }{72}{section.8}% 
\contentsline {subsection}{\numberline {8.1}i3wm Yap\IeC {\i }land\IeC {\i }rma Ayarlar\IeC {\i }}{72}{subsection.8.1}% 
\contentsline {subsubsection}{\numberline {8.1.1}i3 i\IeC {\c c}in .xinitrc Yap\IeC {\i }land\IeC {\i }rmas\IeC {\i }}{72}{subsubsection.8.1.1}% 
\contentsline {subsubsection}{\numberline {8.1.2}Ge\IeC {\c c}ici olarak U\IeC {\c c}birim G\IeC {\"o}r\IeC {\"u}n\IeC {\"u}m\IeC {\"u}n\IeC {\"u} De\IeC {\u g}i\IeC {\c s}tirme}{72}{subsubsection.8.1.2}% 
\contentsline {subsubsection}{\numberline {8.1.3}i3wm Ses Yap\IeC {\i }land\IeC {\i }rmas\IeC {\i }}{74}{subsubsection.8.1.3}% 
\contentsline {subsubsection}{\numberline {8.1.4}i3blocks veya i3status Kullan\IeC {\i }m\IeC {\i }}{75}{subsubsection.8.1.4}% 
\contentsline {subsubsection}{\numberline {8.1.5}i3status bar Renklendirme}{75}{subsubsection.8.1.5}% 
\contentsline {subsubsection}{\numberline {8.1.6}i3lock Kullan\IeC {\i }m\IeC {\i } ve i3lock Arkaplan\IeC {\i } De\IeC {\u g}i\IeC {\c s}imi}{76}{subsubsection.8.1.6}% 
\contentsline {subsection}{\numberline {8.2}i3wm Kullan\IeC {\i }c\IeC {\i } \IeC {\.I}\IeC {\c c}in Kurulumlar}{77}{subsection.8.2}% 
\contentsline {subsubsection}{\numberline {8.2.1}Polybar Kurulumu}{77}{subsubsection.8.2.1}% 
\contentsline {subsubsection}{\numberline {8.2.2}i3-gaps Kurulumu}{78}{subsubsection.8.2.2}% 
\contentsline {section}{\numberline {9}Uygulamalar\IeC {\i }n Y\IeC {\"u}klenmesi}{79}{section.9}% 
\contentsline {subsection}{\numberline {9.1}U\IeC {\c c}birim Kurulumlar\IeC {\i }}{79}{subsection.9.1}% 
\contentsline {subsubsection}{\numberline {9.1.1}Urxvt U\IeC {\c c}birim Kurulumu}{79}{subsubsection.9.1.1}% 
\contentsline {subsection}{\numberline {9.2}Edit\IeC {\"o}r Kurulumlar\IeC {\i }}{79}{subsection.9.2}% 
\contentsline {subsubsection}{\numberline {9.2.1}Gedit Kurulumu}{79}{subsubsection.9.2.1}% 
\contentsline {subsubsection}{\numberline {9.2.2}Vim Kurulumu}{79}{subsubsection.9.2.2}% 
\contentsline {subsection}{\numberline {9.3}Dosya Y\IeC {\"o}neticisinin Kurulumu}{80}{subsection.9.3}% 
\contentsline {subsubsection}{\numberline {9.3.1}Ranger Kurulumu}{80}{subsubsection.9.3.1}% 
\contentsline {subsection}{\numberline {9.4}Pdf G\IeC {\"o}r\IeC {\"u}nt\IeC {\"u}leyici Kurulumlar\IeC {\i }}{80}{subsection.9.4}% 
\contentsline {subsubsection}{\numberline {9.4.1}Zathura Kurulumu}{80}{subsubsection.9.4.1}% 
\contentsline {subsubsection}{\numberline {9.4.2}Xournal Kurulumu}{80}{subsubsection.9.4.2}% 
\contentsline {subsection}{\numberline {9.5}Taray\IeC {\i }c\IeC {\i } Kurulumlar\IeC {\i }}{80}{subsection.9.5}% 
\contentsline {subsubsection}{\numberline {9.5.1}Chromium Kurulumu}{80}{subsubsection.9.5.1}% 
\contentsline {subsubsection}{\numberline {9.5.2}Chrome i\IeC {\c c}in G\IeC {\"u}zel Bir Tema}{81}{subsubsection.9.5.2}% 
\contentsline {subsubsection}{\numberline {9.5.3}QuteBrowser Kurulumu}{81}{subsubsection.9.5.3}% 
\contentsline {subsection}{\numberline {9.6}Masa\IeC {\"u}st\IeC {\"u} Duvarka\IeC {\u g}\IeC {\i }d\IeC {\i } De\IeC {\u g}i\IeC {\c s}tirilmesi}{83}{subsection.9.6}% 
\contentsline {subsubsection}{\numberline {9.6.1}Feh Kurulumu}{83}{subsubsection.9.6.1}% 
\contentsline {subsection}{\numberline {9.7}Sohbet Ara\IeC {\c c}lar\IeC {\i }n\IeC {\i }n Kurulumlar\IeC {\i }}{83}{subsection.9.7}% 
\contentsline {subsubsection}{\numberline {9.7.1}Pidgin Kurulumu}{83}{subsubsection.9.7.1}% 
\contentsline {subsubsection}{\numberline {9.7.2}Irssi Kurulumu}{83}{subsubsection.9.7.2}% 
\contentsline {subsubsection}{\numberline {9.7.3}Irssi ile Arch Linux D\IeC {\"u}nyas\IeC {\i }na Ad\IeC {\i }m}{83}{subsubsection.9.7.3}% 
\contentsline {subsection}{\numberline {9.8}AUR Yard\IeC {\i }mc\IeC {\i }lar\IeC {\i }n\IeC {\i }n Kurulumlar\IeC {\i }}{84}{subsection.9.8}% 
\contentsline {subsubsection}{\numberline {9.8.1}Pikaur Kurulumu}{84}{subsubsection.9.8.1}% 
\contentsline {subsection}{\numberline {9.9}Uzaktan Eri\IeC {\c s}im Programlar\IeC {\i }n\IeC {\i }n Kurulmas\IeC {\i }}{84}{subsection.9.9}% 
\contentsline {subsubsection}{\numberline {9.9.1}Anydesk Kurulumu}{84}{subsubsection.9.9.1}% 
\contentsline {subsection}{\numberline {9.10}\IeC {\.I}ndirme Y\IeC {\"o}neticilerinin Kurulumlar\IeC {\i }}{84}{subsection.9.10}% 
\contentsline {subsubsection}{\numberline {9.10.1}Uget Kurulumu}{84}{subsubsection.9.10.1}% 
\contentsline {subsection}{\numberline {9.11}Office Uygulamalar\IeC {\i }n\IeC {\i }n Kurulumlar\IeC {\i }}{86}{subsection.9.11}% 
\contentsline {subsubsection}{\numberline {9.11.1}Libreoffice Kurulumu}{86}{subsubsection.9.11.1}% 
\contentsline {subsection}{\numberline {9.12}WPS Office Kurulumu}{86}{subsection.9.12}% 
\contentsline {subsubsection}{\numberline {9.12.1}Microsoft Office Online}{87}{subsubsection.9.12.1}% 
\contentsline {subsubsection}{\numberline {9.12.2}Ofis Uygulamalar\IeC {\i } ve A\IeC {\c c}\IeC {\i }klamalar\IeC {\i } Men\IeC {\"u}de Nas\IeC {\i }l T\IeC {\"u}rk\IeC {\c c}e Yap\IeC {\i }l\IeC {\i }r?}{89}{subsubsection.9.12.2}% 
\contentsline {subsection}{\numberline {9.13}B\IeC {\"o}l\IeC {\"u}mleme Ara\IeC {\c c}lar\IeC {\i }n\IeC {\i }n Kurulmas\IeC {\i }}{90}{subsection.9.13}% 
\contentsline {subsubsection}{\numberline {9.13.1}Gparted Kurulumu}{90}{subsubsection.9.13.1}% 
\contentsline {subsection}{\numberline {9.14}FTP Programlar\IeC {\i }n\IeC {\i }n Kurulumlar\IeC {\i }}{90}{subsection.9.14}% 
\contentsline {subsubsection}{\numberline {9.14.1}Filezilla Kurulumu}{90}{subsubsection.9.14.1}% 
\contentsline {subsection}{\numberline {9.15}Versiyon Kontrol Sisteminin Kurulumu}{91}{subsection.9.15}% 
\contentsline {subsubsection}{\numberline {9.15.1}Git Kurulumu}{91}{subsubsection.9.15.1}% 
\contentsline {subsection}{\numberline {9.16}Ekran G\IeC {\"o}r\IeC {\"u}nt\IeC {\"u}s\IeC {\"u} Alma Paketinin Kurulumu}{91}{subsection.9.16}% 
\contentsline {subsubsection}{\numberline {9.16.1}Gnome Screenshot Kurulumu}{91}{subsubsection.9.16.1}% 
\contentsline {subsection}{\numberline {9.17}Resim G\IeC {\"o}r\IeC {\"u}nt\IeC {\"u}leyicisi Kurulumlar\IeC {\i }}{91}{subsection.9.17}% 
\contentsline {subsubsection}{\numberline {9.17.1}Gpicview Kurulumu}{91}{subsubsection.9.17.1}% 
\contentsline {subsection}{\numberline {9.18}VPN Kurulumlar\IeC {\i }}{91}{subsection.9.18}% 
\contentsline {subsubsection}{\numberline {9.18.1}Openvpn ve Tor Kurulumu}{91}{subsubsection.9.18.1}% 
\contentsline {subsection}{\numberline {9.19}Masa\IeC {\"u}st\IeC {\"u} Yap\IeC {\i }land\IeC {\i }rmas\IeC {\i }}{92}{subsection.9.19}% 
\contentsline {subsubsection}{\numberline {9.19.1}Compton Kurulumu}{92}{subsubsection.9.19.1}% 
\contentsline {subsection}{\numberline {9.20}Zip Ara\IeC {\c c}lar\IeC {\i }n\IeC {\i }n Kurulumlar\IeC {\i }}{92}{subsection.9.20}% 
\contentsline {subsubsection}{\numberline {9.20.1}P7zip Kurulumu}{92}{subsubsection.9.20.1}% 
\contentsline {subsection}{\numberline {9.21}Torrent Arac\IeC {\i }n\IeC {\i }n Kurulumlar\IeC {\i }}{92}{subsection.9.21}% 
\contentsline {subsubsection}{\numberline {9.21.1}Transmission Kurulumu}{92}{subsubsection.9.21.1}% 
\contentsline {subsection}{\numberline {9.22}Web Geli\IeC {\c s}tirme Ara\IeC {\c c}lar\IeC {\i }n\IeC {\i }n Kurulumu}{93}{subsection.9.22}% 
\contentsline {subsubsection}{\numberline {9.22.1}Aptana Studio Kurulumu}{93}{subsubsection.9.22.1}% 
\contentsline {subsection}{\numberline {9.23}Sanalla\IeC {\c s}t\IeC {\i }rma Programlar\IeC {\i }n\IeC {\i }n Kurulmas\IeC {\i }}{95}{subsection.9.23}% 
\contentsline {subsubsection}{\numberline {9.23.1}Vmware Workstation Kurulumu}{95}{subsubsection.9.23.1}% 
\contentsline {subsection}{\numberline {9.24}Elektronik \IeC {\.I}mza UYAP Ve UYAP Dok\IeC {\"u}man Edit\IeC {\"o}r\IeC {\"u}}{101}{subsection.9.24}% 
\contentsline {section}{\numberline {10}Arch Linux Hata \IeC {\c C}\IeC {\"o}z\IeC {\"u}mleri}{104}{section.10}% 
\contentsline {subsection}{\numberline {10.1}error status command process exited unexpectedly}{104}{subsection.10.1}% 
\contentsline {subsection}{\numberline {10.2}Locale Hatas\IeC {\i }}{104}{subsection.10.2}% 
\contentsline {subsection}{\numberline {10.3}Please make sure that the kernel module vmmon is loaded.}{105}{subsection.10.3}% 
\contentsline {subsection}{\numberline {10.4}Alsamixer ile Ge\IeC {\c c}ici Ses Sorununu Giderme}{105}{subsection.10.4}% 
\contentsline {subsection}{\numberline {10.5}Command exited with status 2, see :messages for details}{106}{subsection.10.5}% 
\contentsline {subsection}{\numberline {10.6}Tor A\IeC {\u g}\IeC {\i }yla ba\IeC {\u g}lant\IeC {\i } kurulamad\IeC {\i }}{106}{subsection.10.6}% 
\contentsline {subsection}{\numberline {10.7}Hatal\IeC {\i } Saat ve Tarihi De\IeC {\u g}i\IeC {\c s}tirme}{107}{subsection.10.7}% 
\contentsline {subsection}{\numberline {10.8}Fakeroot: Komut yok}{108}{subsection.10.8}% 
\contentsline {subsection}{\numberline {10.9}Openbox netctl problemi}{108}{subsection.10.9}% 
\contentsline {subsection}{\numberline {10.10}Kernel driver not installed and FATAL: Module vboxdrv not found in directory}{109}{subsection.10.10}% 
\contentsline {subsection}{\numberline {10.11}Could not find bundler}{110}{subsection.10.11}% 
\contentsline {subsection}{\numberline {10.12}conky-lua-archers-git compiling error}{112}{subsection.10.12}% 
\contentsline {subsection}{\numberline {10.13}Permission denied failed to initialize KVM}{112}{subsection.10.13}% 
\contentsline {subsection}{\numberline {10.14}Steam Kurulum Problemi}{112}{subsection.10.14}% 
\contentsline {subsection}{\numberline {10.15}Spice Graphics are not supported}{113}{subsection.10.15}% 
\contentsline {subsection}{\numberline {10.16}kvm disabled by bios}{113}{subsection.10.16}% 
\contentsline {subsection}{\numberline {10.17}Par\IeC {\c c}alama hatas\IeC {\i }. \IeC {\c C}ekirdek d\IeC {\"o}k\IeC {\"u}ld\IeC {\"u}}{114}{subsection.10.17}% 
\contentsline {subsection}{\numberline {10.18}Device /dev/loop/ not initialized in udev database even after waiting 100000000 microseconds.}{114}{subsection.10.18}% 
\contentsfinish 
